{
    "fluentMethods": true,
    "relationships": [
        {
            "relationshipType": "many-to-one",
            "relationshipName": "measuringUnit",
            "otherEntityName": "measuringUnit",
            "otherEntityField": "id"
        },
        {
            "relationshipType": "many-to-one",
            "relationshipName": "classification",
            "otherEntityName": "menuClassification",
            "otherEntityField": "id"
        },
        {
            "relationshipType": "many-to-one",
            "relationshipName": "restaurant",
            "otherEntityName": "restaurant",
            "otherEntityField": "id"
        },
        {
            "relationshipType": "many-to-many",
            "otherEntityRelationshipName": "",
            "relationshipName": "pictures",
            "otherEntityName": "picture",
            "otherEntityField": "id",
            "ownerSide": true
        },
        {
            "relationshipType": "many-to-many",
            "otherEntityRelationshipName": "",
            "relationshipName": "subclassifications",
            "otherEntityName": "menuSubclassification",
            "otherEntityField": "id",
            "ownerSide": true
        }
    ],
    "fields": [
        {
            "fieldName": "name",
            "fieldType": "String",
            "fieldValidateRules": [
                "required"
            ]
        },
        {
            "fieldName": "description",
            "fieldType": "String"
        },
        {
            "fieldName": "price",
            "fieldType": "Double",
            "fieldValidateRules": [
                "required"
            ]
        },
        {
            "fieldName": "quantity",
            "fieldType": "Double",
            "fieldValidateRules": [
                "required"
            ]
        },
        {
            "fieldName": "destination",
            "fieldType": "DestinationType",
            "fieldValues": "BAR,COOKER"
        },
        {
            "fieldName": "disabled",
            "fieldType": "Boolean"
        },
        {
            "fieldName": "deleteDate",
            "fieldType": "ZonedDateTime"
        }
    ],
    "changelogDate": "20180419134008",
    "entityTableName": "menu",
    "dto": "mapstruct",
    "pagination": "pagination",
    "service": "serviceClass",
    "jpaMetamodelFiltering": false,
    "searchEngine": "elasticsearch",
    "microserviceName": "ichooseApi"
}