{
    "fluentMethods": true,
    "relationships": [
        {
            "relationshipType": "many-to-one",
            "relationshipName": "restaurant",
            "otherEntityName": "restaurant",
            "otherEntityField": "id"
        },
        {
            "relationshipType": "many-to-one",
            "relationshipName": "client",
            "otherEntityName": "client",
            "otherEntityField": "id"
        }
    ],
    "fields": [
        {
            "fieldName": "parameters",
            "fieldType": "String"
        },
        {
            "fieldName": "creationDate",
            "fieldType": "ZonedDateTime"
        },
        {
            "fieldName": "readDate",
            "fieldType": "ZonedDateTime"
        },
        {
            "fieldName": "type",
            "fieldType": "NotificationType",
            "fieldValues": "NEW_BOOKING,BILL_REQUEST,STAY_STARTED_BY_CLIENT,ORDERS_CHANGED"
        }
    ],
    "changelogDate": "20180621211213",
    "entityTableName": "notification",
    "dto": "mapstruct",
    "pagination": "pagination",
    "service": "serviceClass",
    "jpaMetamodelFiltering": false,
    "searchEngine": "elasticsearch",
    "microserviceName": "ichooseApi"
}