{
    "fluentMethods": true,
    "relationships": [
        {
            "relationshipType": "one-to-one",
            "relationshipName": "location",
            "otherEntityName": "location",
            "otherEntityField": "id",
            "ownerSide": true,
            "otherEntityRelationshipName": "restaurant"
        },
        {
            "relationshipType": "one-to-many",
            "relationshipName": "pictures",
            "otherEntityName": "picture",
            "otherEntityRelationshipName": "restaurant"
        },
        {
            "relationshipType": "one-to-many",
            "relationshipName": "roles",
            "otherEntityName": "role",
            "otherEntityRelationshipName": "restaurant"
        },
        {
            "relationshipType": "many-to-one",
            "relationshipName": "restaurantType",
            "otherEntityName": "restaurantType",
            "otherEntityField": "id"
        },
        {
            "relationshipType": "many-to-many",
            "otherEntityRelationshipName": "",
            "relationshipName": "mealClassification",
            "otherEntityName": "mealClassification",
            "otherEntityField": "id",
            "ownerSide": true
        }
    ],
    "fields": [
        {
            "fieldName": "name",
            "fieldType": "String",
            "fieldValidateRules": [
                "required"
            ]
        },
        {
            "fieldName": "description",
            "fieldType": "String"
        },
        {
            "fieldName": "cuit",
            "fieldType": "String",
            "fieldValidateRules": [
                "required"
            ]
        },
        {
            "fieldName": "cbu",
            "fieldType": "String"
        }
    ],
    "changelogDate": "20180322162125",
    "entityTableName": "restaurant",
    "dto": "mapstruct",
    "pagination": "pagination",
    "service": "serviceClass",
    "jpaMetamodelFiltering": false,
    "searchEngine": "elasticsearch",
    "microserviceName": "ichooseApi"
}