{
    "fluentMethods": true,
    "relationships": [
        {
            "relationshipType": "many-to-one",
            "relationshipName": "restaurant",
            "otherEntityName": "restaurant",
            "otherEntityField": "id"
        },
        {
            "relationshipType": "many-to-one",
            "relationshipName": "client",
            "otherEntityName": "client",
            "otherEntityField": "id"
        }
    ],
    "fields": [
        {
            "fieldName": "numberOfStays",
            "fieldType": "Integer"
        },
        {
            "fieldName": "averageAmount",
            "fieldType": "Double"
        },
        {
            "fieldName": "lastStay",
            "fieldType": "ZonedDateTime"
        }
    ],
    "changelogDate": "20180615202437",
    "entityTableName": "stay_history",
    "dto": "mapstruct",
    "pagination": "infinite-scroll",
    "service": "serviceClass",
    "jpaMetamodelFiltering": false,
    "searchEngine": "elasticsearch",
    "microserviceName": "ichooseApi"
}